<?xml version="1.0" encoding="UTF-8" standalone="no"?>
<!-- Created with Inkscape (http://www.inkscape.org/) -->

<svg
   xmlns:dc="http://purl.org/dc/elements/1.1/"
   xmlns:cc="http://creativecommons.org/ns#"
   xmlns:rdf="http://www.w3.org/1999/02/22-rdf-syntax-ns#"
   xmlns:svg="http://www.w3.org/2000/svg"
   xmlns="http://www.w3.org/2000/svg"
   xmlns:xlink="http://www.w3.org/1999/xlink"
   xmlns:sodipodi="http://sodipodi.sourceforge.net/DTD/sodipodi-0.dtd"
   xmlns:inkscape="http://www.inkscape.org/namespaces/inkscape"
   width="1400"
   height="1450"
   id="svg2"
   version="1.1"
   inkscape:version="0.92.1 r15371"
   sodipodi:docname="Logo_ohne_Text2.svg"
   style="enable-background:new">
  <defs
     id="defs4">
    <inkscape:path-effect
       effect="bend_path"
       id="path-effect3878"
       is_visible="true"
       bendpath="m -1554.059,219.78267 c 206.1852,-206.384415 430.5869,-199.804349 644.4774,0"
       prop_scale="1.1"
       scale_y_rel="false"
       vertical="false"
       bendpath-nodetypes="cc" />
    <linearGradient
       inkscape:collect="always"
       id="linearGradient3753">
      <stop
         style="stop-color:#fcd420;stop-opacity:1;"
         offset="0"
         id="stop3749" />
      <stop
         id="stop4816"
         offset="0.19160888"
         style="stop-color:#fcd420;stop-opacity:1" />
      <stop
         style="stop-color:#fcd420;stop-opacity:0;"
         offset="1"
         id="stop3751" />
    </linearGradient>
    <clipPath
       clipPathUnits="userSpaceOnUse"
       id="clipPath3729">
      <g
         sodipodi:insensitive="true"
         style="display:inline;filter:url(#filter3735)"
         id="use3731"
         inkscape:label="Clip" />
    </clipPath>
    <filter
       inkscape:collect="always"
       style="color-interpolation-filters:sRGB"
       id="filter3735">
      <feBlend
         inkscape:collect="always"
         mode="overlay"
         in2="BackgroundImage"
         id="feBlend3737" />
    </filter>
    <radialGradient
       inkscape:collect="always"
       xlink:href="#linearGradient3753"
       id="radialGradient3755"
       cx="-1137.481"
       cy="497.70389"
       fx="-1137.481"
       fy="497.70389"
       r="377.4212"
       gradientTransform="matrix(1.6637108,-1.667434,1.4952041,1.4918077,1825.4679,-1930.4883)"
       gradientUnits="userSpaceOnUse" />
    <clipPath
       clipPathUnits="userSpaceOnUse"
       id="clipPath3793">
      <g
         id="use3795"
         inkscape:label="Clip" />
    </clipPath>
    <inkscape:path-effect
       effect="bend_path"
       id="path-effect3878-3"
       is_visible="true"
       bendpath="m -1554.059,219.78267 c 206.1852,-206.384415 430.5869,-199.804349 644.4774,0"
       prop_scale="1.2"
       scale_y_rel="false"
       vertical="false"
       bendpath-nodetypes="cc" />
    <inkscape:path-effect
       effect="bend_path"
       id="path-effect3878-3-7"
       is_visible="true"
       bendpath="m -1554.059,219.78267 c 206.1852,-206.384415 430.5869,-199.804349 644.4774,0"
       prop_scale="1.2"
       scale_y_rel="false"
       vertical="false"
       bendpath-nodetypes="cc" />
  </defs>
  <sodipodi:namedview
     id="base"
     pagecolor="#ffffff"
     bordercolor="#666666"
     borderopacity="1.0"
     inkscape:pageopacity="0.0"
     inkscape:pageshadow="2"
     inkscape:zoom="0.49497474"
     inkscape:cx="71.187534"
     inkscape:cy="748.78968"
     inkscape:document-units="px"
     inkscape:current-layer="g2983"
     showgrid="false"
     fit-margin-top="0"
     fit-margin-left="20"
     fit-margin-right="0"
     fit-margin-bottom="0"
     inkscape:window-width="1551"
     inkscape:window-height="876"
     inkscape:window-x="49"
     inkscape:window-y="24"
     inkscape:window-maximized="1"
     showguides="true"
     inkscape:guide-bbox="true"
     inkscape:pagecheckerboard="false"
     inkscape:measure-start="0,0"
     inkscape:measure-end="0,0" />
  <metadata
     id="metadata7">
    <rdf:RDF>
      <cc:Work
         rdf:about="">
        <dc:format>image/svg+xml</dc:format>
        <dc:type
           rdf:resource="http://purl.org/dc/dcmitype/StillImage" />
        <dc:title></dc:title>
      </cc:Work>
    </rdf:RDF>
  </metadata>
  <g
     inkscape:label="ffc logo"
     inkscape:groupmode="layer"
     id="layer1"
     transform="translate(1683.3586,301.88712)">
    <g
       id="g2983"
       transform="translate(131.31984,-50.507628)"
       sodipodi:insensitive="true"
       inkscape:label="ffc logo">
      <path
         style="display:inline;fill:url(#radialGradient3755);fill-opacity:1;stroke-width:2.04459572"
         d="m 702.36719,0.9921875 a 710.7099,708.11694 0 0 0 -71.03321,1.03125 L 650.15234,291.96875 c 50.742,0.6267 102.10009,6.9615 152.19141,21.51563 29.00717,8.51168 57.37269,20.01624 84.28906,34.74804 25.79248,14.14242 49.96536,31.22927 71.86328,50.95703 45.16371,41.01312 79.18841,91.74294 102.24411,146.01758 v 0.002 c 18.4663,43.48656 30.7477,88.64313 38.4766,134.05274 l 286.959,-19.99219 A 710.7099,708.11694 0 0 0 702.36719,0.9921875 Z m -47.08594,369.9960925 6.96289,107.29688 c 28.95029,0.0759 58.35152,3.61807 87.04102,12.26953 15.91425,4.8506 31.48389,11.41278 46.27148,19.82031 14.17045,8.07253 27.45295,17.82706 39.48828,29.0918 24.82011,23.43162 43.50217,52.35611 56.13867,83.2832 9.2474,22.64146 15.6632,46.05117 19.92774,69.61719 l 108.09767,-7.53125 c -6.8392,-37.85123 -16.9942,-74.55467 -31.85158,-108.92383 -19.52871,-45.1895 -46.99044,-86.7522 -82.55469,-118.51563 -17.19779,-15.51716 -36.36117,-29.04635 -56.83398,-40.2832 -21.37914,-11.76118 -44.43458,-21.05877 -68.36328,-28.1289 -39.54685,-11.82252 -81.53811,-17.0798 -124.32422,-17.9961 z m 10.12305,155.98633 2.67382,41.18945 a 147.75104,142.4315 0 0 1 99.85938,34.9961 147.75104,142.4315 0 0 1 49.88867,95.70703 l 45.67774,-3.18164 c -3.64988,-18.74162 -8.77377,-36.89418 -15.89453,-53.99219 -10.54224,-25.32217 -25.32716,-48.59126 -44.44727,-66.31641 -9.24448,-8.66708 -19.55078,-16.22782 -30.5625,-22.50781 -11.49968,-6.57485 -23.91764,-11.77505 -36.81641,-15.73633 -22.31159,-6.94092 -46.11232,-9.85572 -70.3789,-10.1582 z"
         transform="translate(-1814.6784,-234.32358)"
         id="path3710"
         inkscape:connector-curvature="0"
         sodipodi:insensitive="true"
         inkscape:label="funkstrahlen" />
      <path
         style="display:inline;fill:#e22678;fill-opacity:1;stroke-width:2.02030516"
         d="m 293.7505,1357.827 c -3.61135,-2.6374 -3.97118,-5.9982 -4.54724,-42.4714 -0.59111,-37.4255 -0.33002,-40.7457 4.73958,-60.2706 3.73997,-14.4039 5.0373,-23.5022 4.28283,-30.0355 -2.18552,-18.9254 -20.46885,-51.9931 -46.79488,-84.6342 -16.92182,-20.981 -32.4163,-43.7626 -44.61486,-65.5975 l -7.90084,-14.1422 -1.01015,-78.79186 -1.01015,-78.7919 -12.61832,-25.25381 c -14.60982,-29.23951 -20.30574,-36.10974 -48.47461,-58.4684 -12.99977,-10.3184 -21.15329,-18.27841 -21.94212,-21.42136 -1.31035,-5.22085 0.0201,-6.60817 62.832,-65.51574 8.88934,-8.3368 25.25381,-23.80608 36.36549,-34.37618 33.96837,-32.31279 48.76205,-43.6424 74.22616,-56.8455 19.71255,-10.22093 27.46026,-15.6758 42.8717,-30.18437 10.34602,-9.7399 21.64777,-19.17588 25.11501,-20.96887 9.10111,-4.70636 36.88665,-7.72139 56.78718,-6.162 37.68199,2.95271 73.0629,8.91759 81.60213,13.75732 4.56581,2.58772 18.30196,10.50526 30.52481,17.59451 12.22284,7.08926 36.31498,19.39023 53.53808,27.33549 17.22311,7.94527 47.93249,22.34008 68.2431,31.98846 20.31062,9.64839 39.19152,18.40297 41.95756,19.45462 2.76606,1.05166 5.80427,3.97396 6.75162,6.49401 0.94732,2.52006 4.18728,26.85578 7.19992,54.0794 3.01264,27.22361 7.20728,61.77083 9.32144,76.77159 5.77393,40.96833 5.84236,40.4491 -6.69878,50.82457 -14.70574,12.16628 -16.12188,14.08994 -28.02382,38.0673 -12.51011,25.20258 -14.46764,39.40955 -8.90805,64.65132 5.22296,23.7133 13.07843,69.0593 13.13833,75.8415 0.0523,5.9262 -15.94259,27.4214 -62.32908,83.7626 -12.68293,15.4047 -35.39979,60.1923 -38.77376,76.4446 -1.84136,8.8698 -1.65576,15.1134 0.94577,31.8169 4.51314,28.9773 4.57344,97.0224 0.0917,103.421 l -3.14509,4.4902 H 437.58269 c -117.55948,0 -140.53701,-0.4576 -143.83219,-2.864 z m 277.91089,-7.1914 c 4.70499,-2.9689 5.40434,-70.5166 0.99791,-96.3843 -4.76685,-27.9835 -2.36978,-39.7637 15.26355,-75.0114 10.60393,-21.1966 17.91865,-32.602 31.3381,-48.8637 22.85666,-27.6978 48.11884,-60.3921 51.24668,-66.3234 2.77874,-5.2692 1.58086,-14.9843 -7.24635,-58.7698 -4.02726,-19.97642 -4.92116,-29.64986 -4.3872,-47.47719 l 0.67058,-22.38909 10.77657,-21.74878 c 8.88502,-17.93132 12.85052,-23.57432 22.5921,-32.14924 6.49854,-5.72023 12.32275,-12.42142 12.9427,-14.89151 0.61996,-2.47008 -0.17213,-14.3679 -1.76023,-26.43961 -1.58808,-12.07171 -5.72106,-46.42219 -9.18438,-76.33441 -3.46335,-29.91222 -7.20868,-56.08936 -8.32295,-58.17142 -1.94398,-3.63235 -21.96727,-13.78036 -87.65296,-44.42343 -45.08061,-21.03058 -70.99793,-34.17184 -94.5897,-47.96128 -20.91818,-12.22672 -21.49942,-12.42311 -49.15236,-16.60756 -33.67748,-5.09608 -74.22864,-5.96223 -88.27107,-1.88541 -7.61427,2.21057 -14.18103,6.91536 -29.65865,21.24902 -16.02631,14.84181 -24.50711,20.83542 -43.75851,30.92528 -14.13057,7.40598 -30.47783,18.02471 -40.04189,26.0101 -20.69477,17.27883 -126.24625,117.58652 -127.68849,121.34491 -1.33429,3.47713 3.31232,8.88345 16.57171,19.28111 25.13451,19.70981 32.99305,29.48007 48.16268,59.87899 l 14.46678,28.99049 1.01015,77.21374 1.01016,77.21369 6.7929,12.9938 c 10.24812,19.6031 25.97316,42.7363 46.59894,68.5522 13.43417,16.8146 22.15841,30.3881 31.57778,49.1298 12.88363,25.6346 13.01517,26.0659 13.01517,42.6775 0,10.3935 -1.23518,20.1462 -3.24499,25.6214 -2.39461,6.5237 -3.52623,19.307 -4.31822,48.7806 -0.97975,36.4609 -0.75779,40.2888 2.54796,43.9417 3.5398,3.9114 6.5997,4.0006 136.14314,3.9704 79.81754,-0.018 133.72714,-0.7915 135.55239,-1.9432 z"
         id="path3706"
         inkscape:connector-curvature="0"
         transform="translate(-1814.6784,-234.32358)"
         sodipodi:insensitive="true"
         inkscape:label="Kopf innen" />
      <path
         style="display:inline;fill:#e22678;fill-opacity:1;stroke-width:2.02030516"
         d="m 389.20312,512.66602 c -9.30874,0.0428 -17.46296,0.44904 -23.67578,1.28515 -14.56804,1.96055 -20.20991,4.08615 -44.82422,16.89453 -25.72885,13.38836 -29.37305,15.99764 -42.25781,30.25586 -14.19694,15.71029 -22.19463,20.7757 -52.25586,33.0918 -5.00025,2.04861 -14.54588,8.87774 -21.21289,15.17578 -6.66701,6.29804 -15.96719,14.50403 -20.66601,18.23633 -4.69882,3.73229 -31.51898,28.63527 -59.59961,55.33984 -28.080646,26.70457 -56.964915,52.98478 -64.187502,58.40039 -7.22259,5.41559 -16.540153,13.06926 -20.707032,17.00977 l -8.081248,9.18632 -6.565992,18.3711 7.071068,21.40352 9.525391,16.57226 c 10.709282,18.63138 22.157684,30.71274 44.738281,47.21485 18.642454,13.62409 29.453814,23.6917 34.951174,32.54296 3.90986,6.29527 4.13871,10.29842 4.73242,82.83204 0.61518,75.15738 0.69412,76.41398 5.625,90.35938 7.19063,20.3364 9.09265,24.2209 21.77539,44.4473 6.2707,10.0005 13.03472,21.3648 15.03125,25.2539 3.90725,7.6111 19.86202,29.0549 42.08594,56.5683 7.62914,9.4449 15.30784,20.12 17.06445,23.7227 3.05447,6.2646 2.99097,6.7668 -1.46484,11.5097 -2.56251,2.7277 -5.41552,8.8712 -6.33985,13.6524 -0.92432,4.7813 -1.72113,47.1432 -1.76953,94.1367 l -0.0879,85.4414 218.02539,-0.5898 c 119.91396,-0.3244 218.46957,-1.044 219.01172,-1.5996 4.13372,-4.2361 0.4703,-173.5326 -3.94336,-182.2325 -7.53349,-14.8493 -0.96548,-31.0916 24.50586,-60.6015 8.88935,-10.2987 22.40489,-26.8739 30.03516,-36.834 7.63026,-9.9601 18.99457,-24.199 25.2539,-31.6406 6.25933,-7.4416 14.4965,-19.3699 18.30469,-26.5078 l 6.92383,-12.9786 -6.31641,-27.1367 c -3.47415,-14.926 -6.76575,-33.0489 -7.31445,-40.2715 -0.54869,-7.2226 -2.41269,-18.54916 -4.14258,-25.17184 -3.63677,-13.92305 -4.12379,-33.87402 -0.9707,-39.76563 1.196,-2.23474 12.50673,-10.77186 25.13476,-18.9707 12.62804,-8.19887 23.92288,-16.70556 25.09961,-18.9043 1.17673,-2.19873 2.13682,-8.82964 2.13282,-14.73632 -0.007,-9.98752 -6.79765,-67.30919 -9.13282,-77.09571 -0.57168,-2.39582 -2.90449,-22.08418 -5.18554,-43.75195 -2.28104,-21.66777 -4.91943,-46.6673 -5.86133,-55.55664 -0.94191,-8.88934 -2.76465,-26.61805 -4.05078,-39.39649 -1.28675,-12.78444 -3.63995,-25.26011 -5.23242,-27.73828 -3.93266,-6.11993 -9.1948,-8.58563 -44.30079,-20.75976 -16.64798,-5.77322 -42.54441,-16.67654 -57.54687,-24.23047 -15.00246,-7.55393 -35.0043,-17.10394 -44.44922,-21.22266 -9.44493,-4.11873 -21.7176,-9.5202 -27.27344,-12.00195 -5.55584,-2.48175 -22.37618,-12.64311 -37.37695,-22.58203 -15.00076,-9.93891 -32.27335,-20.05339 -38.38477,-22.47461 -19.50897,-7.72908 -81.51171,-14.3377 -121.84961,-14.15234 z m 4.7754,41.27148 c 38.695,0.1294 92.47673,5.34739 105.89257,12.2207 3.37197,1.72755 16.04034,9.49745 28.15235,17.26758 12.11202,7.77013 31.65745,18.65102 43.43554,24.17969 11.7781,5.52866 39.14473,18.5665 60.8125,28.97265 21.66777,10.40617 49.77687,22.83977 62.46485,27.63086 15.66088,5.91366 24.23718,10.31135 26.70898,13.69141 2.80715,3.83861 4.79815,15.62077 8.69336,51.44531 2.77883,25.55686 7.94015,68.79355 11.46875,96.08203 7.65607,59.20829 7.41724,62.13841 -5.81836,71.22071 -28.91234,19.83972 -38.88359,36.2743 -38.83789,64.02148 0.0156,9.44492 1.42545,23.0821 3.13281,30.30469 4.11714,17.41669 13.01197,70.05969 12.94727,76.62699 -0.0687,6.9758 -20.06626,33.8086 -70.875,95.0996 -16.46258,19.859 -30.25259,46.5789 -31.71289,61.4492 -0.53645,5.4625 0.057,20.01 1.31836,32.3262 1.26134,12.3161 2.63373,45.8813 3.04883,74.5898 0.73094,50.5551 0.62281,52.318 -3.39649,56.0625 -4.02075,3.7482 -9.37094,3.8623 -171.95898,3.7383 -92.29519,-0.07 -169.79516,-0.9282 -172.22266,-1.9063 -8.62664,-3.4757 -9.0679,-7.209 -8.33398,-70.3515 0.61682,-53.0681 1.12419,-60.8711 4.42383,-68.0254 2.04994,-4.4446 3.84065,-13.1496 3.98046,-19.3457 0.35298,-15.6496 -9.55541,-34.9049 -33.1875,-64.4961 -21.15524,-26.4899 -32.77894,-43.3215 -48.83593,-70.711 -18.49725,-31.5516 -17.49894,-25.3974 -18.20508,-112.1269 l -0.625,-76.77149 -6.94336,-15.15234 c -8.07227,-17.6132 -22.83755,-34.21208 -47.75977,-53.69531 -20.902376,-16.34072 -36.650478,-33.88219 -38.296871,-42.65821 -1.666654,-8.88405 2.013549,-14.19289 18.482422,-26.66015 7.268734,-5.50256 37.545349,-33.03205 67.281249,-61.17774 73.10662,-69.19702 79.52448,-74.46364 108.39258,-88.94922 20.8532,-10.46383 26.38377,-14.34536 39.54687,-27.74609 15.50788,-15.78785 32.60257,-27.69214 48.61914,-33.85742 6.14704,-2.36619 20.6184,-3.35765 38.20704,-3.29883 z"
         transform="translate(-1814.6784,-234.32358)"
         id="path3704"
         inkscape:connector-curvature="0"
         sodipodi:nodetypes="cssssscsccccccscssscccccccscccssccccccccccsccsssssscccscscscccsscccccsscccsccccscccscsssss"
         inkscape:label="Kopf aussen" />
      <path
         style="display:inline;fill:#fcd420;fill-opacity:1;stroke-width:2.02030516"
         d="m 482.2234,910.23691 c -14.3312,-13.09791 -27.73971,-30.60618 -27.73971,-36.22136 0,-2.45267 1.29451,-6.9627 2.87669,-10.0223 2.69126,-5.20432 45.61354,-46.66048 69.34823,-66.97946 9.5288,-8.1575 13.25142,-13.97829 9.09236,-14.21711 -0.83337,-0.0479 -16.46914,-0.87624 -34.74615,-1.84085 -28.25333,-1.49115 -33.62478,-2.29249 -35.86041,-5.3499 -4.02591,-5.50575 -3.26445,-8.1675 4.94665,-17.29145 13.27785,-14.754 49.73836,-46.65933 56.59475,-49.52412 5.51055,-2.30245 16.73539,-2.38983 67.19838,-0.52311 33.32051,1.23258 63.01612,2.89185 65.99025,3.68725 2.97411,0.7954 7.0183,3.67008 8.98708,6.38818 3.34197,4.61393 3.45945,9.26163 1.76949,70.01027 -1.22546,44.05045 -2.60533,66.56455 -4.2719,69.70053 -7.08888,13.3391 -57.85424,60.19065 -65.21874,60.19065 -9.46744,0 -10.39371,-3.91749 -9.62781,-40.71889 0.60368,-29.00703 0.26709,-34.0324 -2.27945,-34.0324 -3.24231,0 -19.44527,14.32698 -56.54661,49.99967 -22.00833,21.16085 -29.72226,26.77193 -36.80526,26.77193 -1.50487,0 -7.6734,-4.5124 -13.70784,-10.02753 z"
         id="path3708"
         inkscape:connector-curvature="0"
         transform="translate(-1814.6784,-234.32358)"
         sodipodi:insensitive="true"
         inkscape:label="Pfeil" />
    </g>
  </g>
</svg>
